-------------------------------------------------------------------------------
Test set: org.springframework.samples.petclinic.web.VisitsViewTests
-------------------------------------------------------------------------------
Tests run: 1, Failures: 0, Errors: 0, Skipped: 0, Time elapsed: 2.21 sec
