-------------------------------------------------------------------------------
Test set: org.springframework.samples.petclinic.service.ClinicServiceSpringDataJpaTests
-------------------------------------------------------------------------------
Tests run: 10, Failures: 0, Errors: 0, Skipped: 0, Time elapsed: 1.427 sec
